﻿{
  "output_file": "Settings/settings.json",
  "OnlyLive": {
    "type": "checkbox",
    "value": true,
    "label": "Only when live",
    "tooltip": "Command is only active when stream is live",
    "group": "General"
  },

  "HydroMessage": {
    "type": "textbox",
    "value": "You should drink something! By now you should have drank {0} ml",
    "label": "Not subribed message",
    "tooltip": "{0} = username",
    "group": "Hydro"
  },
  "HydroAmount": {
    "type": "numberbox",
    "value": 150,
    "label": "ml per intervall",
    "tooltip": "How much Should you drink per Intervall",
    "group": "Hydro"
  },
  "HydroInterval": {
    "type": "numberbox",
    "value": 3600,
    "label": "Hydro intervall",
    "tooltip": "Time between each Hydro message",
    "group": "Hydro"
  },
  "setBirthDayCommand": {
    "type": "textbox",
    "value": "!setbirthday",
    "label": "Hydro intervall",
    "tooltip": "Time between each Hydro message",
    "group": "Birthday"
  },
  "ShortInterval": {
    "type": "numberbox",
    "value": 15,
    "label": "ShortInterval in seconds",
    "tooltip": "The time between each short Timer",
    "group": "Intervals"
  },
  "MediumInterval": {
    "type": "numberbox",
    "value": 90,
    "label": "Medium in seconds",
    "tooltip": "The time between each Medium Timer",
    "group": "Intervals"
  },
  "LongInterval": {
    "type": "numberbox",
    "value": 240,
    "label": "Long Interval in seconds",
    "tooltip": "The time between each Long Timer",
    "group": "Intervals"
  },
  "BtnDefaults": {
    "type": "button",
    "label": "Restore Default Settings",
    "tooltip": "Reset settings back to defaults.\r\nReload Scripts afterwards to see the changes in the user interface!",
    "function": "SetDefaults",
    "wsevent": "",
    "group": ""
  }
}